%YAML 1.1
%TAG !u! tag:unity3d.com,2011:
--- !u!114 &11400000
MonoBehaviour:
  m_ObjectHideFlags: 0
  m_PrefabParentObject: {fileID: 0}
  m_PrefabInternal: {fileID: 0}
  m_GameObject: {fileID: 0}
  m_Enabled: 1
  m_EditorHideFlags: 0
  m_Script: {fileID: 11500000, guid: 8d8cb0b18357a234dbca8f0f1b6e0222, type: 3}
  m_Name: QuickSliceNormalAI
  m_EditorClassIdentifier: 
  reactionTimeMin: 0.666
  reactionTimeMax: 1.666
  drawFrequency: 3
