%YAML 1.1
%TAG !u! tag:unity3d.com,2011:
--- !u!1045 &1
EditorBuildSettings:
  m_ObjectHideFlags: 0
  serializedVersion: 2
  m_Scenes:
  - enabled: 1
    path: Assets/Scenes/Menus/TestMenu.unity
  - enabled: 1
    path: Assets/Scenes/Menus/GameSetupMenu.unity
  - enabled: 1
    path: Assets/Scenes/Games/KendoClash.unity
  - enabled: 1
    path: Assets/Scenes/Games/KatanaCross.unity
  - enabled: 1
    path: Assets/Scenes/Games/NinjaJump.unity
  - enabled: 1
    path: Assets/Scenes/Games/QuickSlice.unity
  - enabled: 1
    path: Assets/Scenes/Games/SamuraiCharge.unity
  - enabled: 1
    path: Assets/Scenes/Games/SlashAndDash.unity
